{
   "abstract" : "Handy web browsing in a Perl object",
   "author" : [
      "Andy Lester <andy at petdance.com>"
   ],
   "dynamic_config" : 0,
   "generated_by" : "Dist::Zilla version 6.012, CPAN::Meta::Converter version 2.150010",
   "license" : [
      "perl_5"
   ],
   "meta-spec" : {
      "url" : "http://search.cpan.org/perldoc?CPAN::Meta::Spec",
      "version" : 2
   },
   "name" : "WWW-Mechanize",
   "no_index" : {
      "directory" : [
         "examples",
         "t",
         "xt"
      ]
   },
   "prereqs" : {
      "configure" : {
         "requires" : {
            "ExtUtils::MakeMaker" : "0"
         },
         "suggests" : {
            "JSON::PP" : "2.27300"
         }
      },
      "develop" : {
         "recommends" : {
            "Dist::Zilla::PluginBundle::Git::VersionManager" : "0.007"
         },
         "requires" : {
            "Code::TidyAll" : "0.71",
            "Code::TidyAll::Plugin::SortLines::Naturally" : "0.000003",
            "Code::TidyAll::Plugin::Test::Vars" : "0.04",
            "Encode" : "0",
            "Parallel::ForkManager" : "1.19",
            "Perl::Critic" : "1.132",
            "Perl::Tidy" : "20180220",
            "Pod::Coverage::TrustPod" : "0",
            "Test::Code::TidyAll" : "0.50",
            "Test::More" : "0.88",
            "Test::Needs" : "0",
            "Test::Pod" : "1.41",
            "Test::Pod::Coverage" : "1.08",
            "Test::RequiresInternet" : "0",
            "Test::Vars" : "0.014",
            "constant" : "0",
            "lib" : "0"
         }
      },
      "runtime" : {
         "requires" : {
            "Carp" : "0",
            "Getopt::Long" : "0",
            "HTML::Form" : "1.00",
            "HTML::HeadParser" : "0",
            "HTML::TokeParser" : "0",
            "HTML::TreeBuilder" : "5",
            "HTTP::Cookies" : "0",
            "HTTP::Request" : "1.30",
            "HTTP::Request::Common" : "0",
            "LWP::UserAgent" : "5.827",
            "Pod::Usage" : "0",
            "Scalar::Util" : "1.14",
            "Tie::RefHash" : "0",
            "URI::URL" : "0",
            "URI::file" : "0",
            "base" : "0",
            "perl" : "5.006",
            "strict" : "0",
            "warnings" : "0"
         }
      },
      "test" : {
         "recommends" : {
            "CPAN::Meta" : "2.120900"
         },
         "requires" : {
            "CGI" : "4.32",
            "Exporter" : "0",
            "ExtUtils::MakeMaker" : "0",
            "File::Spec" : "0",
            "File::Temp" : "0",
            "FindBin" : "0",
            "HTTP::Daemon" : "0",
            "HTTP::Response" : "0",
            "HTTP::Server::Simple::CGI" : "0",
            "LWP" : "0",
            "LWP::Simple" : "0",
            "Test::Deep" : "0",
            "Test::Fatal" : "0",
            "Test::More" : "0.96",
            "Test::Output" : "0",
            "Test::Warnings" : "0",
            "URI" : "0",
            "URI::Escape" : "0",
            "bytes" : "0",
            "lib" : "0",
            "vars" : "0"
         }
      }
   },
   "provides" : {
      "WWW::Mechanize" : {
         "file" : "lib/WWW/Mechanize.pm",
         "version" : "1.91"
      },
      "WWW::Mechanize::Image" : {
         "file" : "lib/WWW/Mechanize/Image.pm",
         "version" : "1.91"
      },
      "WWW::Mechanize::Link" : {
         "file" : "lib/WWW/Mechanize/Link.pm",
         "version" : "1.91"
      }
   },
   "release_status" : "stable",
   "resources" : {
      "bugtracker" : {
         "web" : "https://github.com/libwww-perl/WWW-Mechanize/issues"
      },
      "homepage" : "https://github.com/libwww-perl/WWW-Mechanize",
      "repository" : {
         "type" : "git",
         "url" : "https://github.com/libwww-perl/WWW-Mechanize.git",
         "web" : "https://github.com/libwww-perl/WWW-Mechanize"
      }
   },
   "version" : "1.91",
   "x_Dist_Zilla" : {
      "perl" : {
         "version" : "5.026001"
      },
      "plugins" : [
         {
            "class" : "Dist::Zilla::Plugin::PromptIfStale",
            "config" : {
               "Dist::Zilla::Plugin::PromptIfStale" : {
                  "check_all_plugins" : 0,
                  "check_all_prereqs" : 0,
                  "modules" : [
                     "Dist::Zilla::PluginBundle::Author::OALDERS"
                  ],
                  "phase" : "build",
                  "run_under_travis" : 0,
                  "skip" : []
               }
            },
            "name" : "@Author::OALDERS/stale modules, build",
            "version" : "0.055"
         },
         {
            "class" : "Dist::Zilla::Plugin::PromptIfStale",
            "config" : {
               "Dist::Zilla::Plugin::PromptIfStale" : {
                  "check_all_plugins" : 1,
                  "check_all_prereqs" : 1,
                  "modules" : [],
                  "phase" : "release",
                  "run_under_travis" : 0,
                  "skip" : []
               }
            },
            "name" : "@Author::OALDERS/stale modules, release",
            "version" : "0.055"
         },
         {
            "class" : "Dist::Zilla::Plugin::MAXMIND::TidyAll",
            "name" : "@Author::OALDERS/MAXMIND::TidyAll",
            "version" : "0.83"
         },
         {
            "class" : "Dist::Zilla::Plugin::AutoPrereqs",
            "name" : "@Author::OALDERS/AutoPrereqs",
            "version" : "6.012"
         },
         {
            "class" : "Dist::Zilla::Plugin::MakeMaker",
            "config" : {
               "Dist::Zilla::Role::TestRunner" : {
                  "default_jobs" : 1
               }
            },
            "name" : "@Author::OALDERS/MakeMaker",
            "version" : "6.012"
         },
         {
            "class" : "Dist::Zilla::Plugin::CPANFile",
            "name" : "@Author::OALDERS/CPANFile",
            "version" : "6.012"
         },
         {
            "class" : "Dist::Zilla::Plugin::ContributorsFile",
            "name" : "@Author::OALDERS/ContributorsFile",
            "version" : "0.3.0"
         },
         {
            "class" : "Dist::Zilla::Plugin::MetaJSON",
            "name" : "@Author::OALDERS/MetaJSON",
            "version" : "6.012"
         },
         {
            "class" : "Dist::Zilla::Plugin::MetaYAML",
            "name" : "@Author::OALDERS/MetaYAML",
            "version" : "6.012"
         },
         {
            "class" : "Dist::Zilla::Plugin::Manifest",
            "name" : "@Author::OALDERS/Manifest",
            "version" : "6.012"
         },
         {
            "class" : "Dist::Zilla::Plugin::MetaNoIndex",
            "name" : "@Author::OALDERS/MetaNoIndex",
            "version" : "6.012"
         },
         {
            "class" : "Dist::Zilla::Plugin::MetaConfig",
            "name" : "@Author::OALDERS/MetaConfig",
            "version" : "6.012"
         },
         {
            "class" : "Dist::Zilla::Plugin::MetaResources",
            "name" : "@Author::OALDERS/MetaResources",
            "version" : "6.012"
         },
         {
            "class" : "Dist::Zilla::Plugin::License",
            "name" : "@Author::OALDERS/License",
            "version" : "6.012"
         },
         {
            "class" : "Dist::Zilla::Plugin::InstallGuide",
            "name" : "@Author::OALDERS/InstallGuide",
            "version" : "1.200012"
         },
         {
            "class" : "Dist::Zilla::Plugin::Prereqs",
            "config" : {
               "Dist::Zilla::Plugin::Prereqs" : {
                  "phase" : "develop",
                  "type" : "requires"
               }
            },
            "name" : "@Author::OALDERS/Modules for use with tidyall",
            "version" : "6.012"
         },
         {
            "class" : "Dist::Zilla::Plugin::ExecDir",
            "name" : "@Author::OALDERS/ExecDir",
            "version" : "6.012"
         },
         {
            "class" : "Dist::Zilla::Plugin::PodCoverageTests",
            "name" : "@Author::OALDERS/PodCoverageTests",
            "version" : "6.012"
         },
         {
            "class" : "Dist::Zilla::Plugin::PodSyntaxTests",
            "name" : "@Author::OALDERS/PodSyntaxTests",
            "version" : "6.012"
         },
         {
            "class" : "Dist::Zilla::Plugin::TestRelease",
            "name" : "@Author::OALDERS/TestRelease",
            "version" : "6.012"
         },
         {
            "class" : "Dist::Zilla::Plugin::Test::ReportPrereqs",
            "name" : "@Author::OALDERS/Test::ReportPrereqs",
            "version" : "0.027"
         },
         {
            "class" : "Dist::Zilla::Plugin::Test::TidyAll",
            "name" : "@Author::OALDERS/Test::TidyAll",
            "version" : "0.04"
         },
         {
            "class" : "Dist::Zilla::Plugin::RunExtraTests",
            "config" : {
               "Dist::Zilla::Role::TestRunner" : {
                  "default_jobs" : 1
               }
            },
            "name" : "@Author::OALDERS/RunExtraTests",
            "version" : "0.029"
         },
         {
            "class" : "Dist::Zilla::Plugin::PodWeaver",
            "config" : {
               "Dist::Zilla::Plugin::PodWeaver" : {
                  "finder" : [
                     ":InstallModules",
                     ":ExecFiles"
                  ],
                  "plugins" : [
                     {
                        "class" : "Pod::Weaver::Plugin::EnsurePod5",
                        "name" : "@CorePrep/EnsurePod5",
                        "version" : "4.015"
                     },
                     {
                        "class" : "Pod::Weaver::Plugin::H1Nester",
                        "name" : "@CorePrep/H1Nester",
                        "version" : "4.015"
                     },
                     {
                        "class" : "Pod::Weaver::Plugin::SingleEncoding",
                        "name" : "@Default/SingleEncoding",
                        "version" : "4.015"
                     },
                     {
                        "class" : "Pod::Weaver::Section::Name",
                        "name" : "@Default/Name",
                        "version" : "4.015"
                     },
                     {
                        "class" : "Pod::Weaver::Section::Version",
                        "name" : "@Default/Version",
                        "version" : "4.015"
                     },
                     {
                        "class" : "Pod::Weaver::Section::Region",
                        "name" : "@Default/prelude",
                        "version" : "4.015"
                     },
                     {
                        "class" : "Pod::Weaver::Section::Generic",
                        "name" : "SYNOPSIS",
                        "version" : "4.015"
                     },
                     {
                        "class" : "Pod::Weaver::Section::Generic",
                        "name" : "DESCRIPTION",
                        "version" : "4.015"
                     },
                     {
                        "class" : "Pod::Weaver::Section::Generic",
                        "name" : "OVERVIEW",
                        "version" : "4.015"
                     },
                     {
                        "class" : "Pod::Weaver::Section::Collect",
                        "name" : "ATTRIBUTES",
                        "version" : "4.015"
                     },
                     {
                        "class" : "Pod::Weaver::Section::Collect",
                        "name" : "METHODS",
                        "version" : "4.015"
                     },
                     {
                        "class" : "Pod::Weaver::Section::Collect",
                        "name" : "FUNCTIONS",
                        "version" : "4.015"
                     },
                     {
                        "class" : "Pod::Weaver::Section::Leftovers",
                        "name" : "@Default/Leftovers",
                        "version" : "4.015"
                     },
                     {
                        "class" : "Pod::Weaver::Section::Region",
                        "name" : "@Default/postlude",
                        "version" : "4.015"
                     },
                     {
                        "class" : "Pod::Weaver::Section::Authors",
                        "name" : "@Default/Authors",
                        "version" : "4.015"
                     },
                     {
                        "class" : "Pod::Weaver::Section::Legal",
                        "name" : "@Default/Legal",
                        "version" : "4.015"
                     }
                  ]
               }
            },
            "name" : "@Author::OALDERS/PodWeaver",
            "version" : "4.008"
         },
         {
            "class" : "Dist::Zilla::Plugin::PruneCruft",
            "name" : "@Author::OALDERS/PruneCruft",
            "version" : "6.012"
         },
         {
            "class" : "Dist::Zilla::Plugin::CopyFilesFromBuild",
            "name" : "@Author::OALDERS/CopyFilesFromBuild",
            "version" : "0.170880"
         },
         {
            "class" : "Dist::Zilla::Plugin::GithubMeta",
            "name" : "@Author::OALDERS/GithubMeta",
            "version" : "0.58"
         },
         {
            "class" : "Dist::Zilla::Plugin::Git::GatherDir",
            "config" : {
               "Dist::Zilla::Plugin::GatherDir" : {
                  "exclude_filename" : [
                     "Install",
                     "LICENSE",
                     "META.json",
                     "Makefile.PL",
                     "README.md",
                     "cpanfile"
                  ],
                  "exclude_match" : [],
                  "follow_symlinks" : 0,
                  "include_dotfiles" : 0,
                  "prefix" : "",
                  "prune_directory" : [],
                  "root" : "."
               },
               "Dist::Zilla::Plugin::Git::GatherDir" : {
                  "include_untracked" : 0
               }
            },
            "name" : "@Author::OALDERS/Git::GatherDir",
            "version" : "2.045"
         },
         {
            "class" : "Dist::Zilla::Plugin::CopyFilesFromRelease",
            "config" : {
               "Dist::Zilla::Plugin::CopyFilesFromRelease" : {
                  "filename" : [
                     "Install"
                  ],
                  "match" : []
               }
            },
            "name" : "@Author::OALDERS/CopyFilesFromRelease",
            "version" : "0.006"
         },
         {
            "class" : "Dist::Zilla::Plugin::Git::Check",
            "config" : {
               "Dist::Zilla::Plugin::Git::Check" : {
                  "untracked_files" : "die"
               },
               "Dist::Zilla::Role::Git::DirtyFiles" : {
                  "allow_dirty" : [
                     "Changes",
                     "Install",
                     "LICENSE",
                     "META.json",
                     "Makefile.PL",
                     "README.md",
                     "cpanfile",
                     "dist.ini"
                  ],
                  "allow_dirty_match" : [],
                  "changelog" : "Changes"
               },
               "Dist::Zilla::Role::Git::Repo" : {
                  "git_version" : "2.20.1",
                  "repo_root" : "."
               }
            },
            "name" : "@Author::OALDERS/Git::Check",
            "version" : "2.045"
         },
         {
            "class" : "Dist::Zilla::Plugin::Git::Contributors",
            "config" : {
               "Dist::Zilla::Plugin::Git::Contributors" : {
                  "git_version" : "2.20.1",
                  "include_authors" : 0,
                  "include_releaser" : 1,
                  "order_by" : "name",
                  "paths" : []
               }
            },
            "name" : "@Author::OALDERS/Git::Contributors",
            "version" : "0.035"
         },
         {
            "class" : "Dist::Zilla::Plugin::ReadmeAnyFromPod",
            "config" : {
               "Dist::Zilla::Role::FileWatcher" : {
                  "version" : "0.006"
               }
            },
            "name" : "@Author::OALDERS/ReadmeMdInBuild",
            "version" : "0.163250"
         },
         {
            "class" : "Dist::Zilla::Plugin::ShareDir",
            "name" : "@Author::OALDERS/ShareDir",
            "version" : "6.012"
         },
         {
            "class" : "Dist::Zilla::Plugin::TravisCI::StatusBadge",
            "name" : "@Author::OALDERS/TravisCI::StatusBadge",
            "version" : "0.007"
         },
         {
            "class" : "Dist::Zilla::Plugin::ConfirmRelease",
            "name" : "@Author::OALDERS/ConfirmRelease",
            "version" : "6.012"
         },
         {
            "class" : "Dist::Zilla::Plugin::UploadToCPAN",
            "name" : "@Author::OALDERS/UploadToCPAN",
            "version" : "6.012"
         },
         {
            "class" : "Dist::Zilla::Plugin::Prereqs",
            "config" : {
               "Dist::Zilla::Plugin::Prereqs" : {
                  "phase" : "develop",
                  "type" : "recommends"
               }
            },
            "name" : "@Author::OALDERS/@Git::VersionManager/pluginbundle version",
            "version" : "6.012"
         },
         {
            "class" : "Dist::Zilla::Plugin::RewriteVersion::Transitional",
            "config" : {
               "Dist::Zilla::Plugin::RewriteVersion" : {
                  "add_tarball_name" : 0,
                  "finders" : [
                     ":ExecFiles",
                     ":InstallModules"
                  ],
                  "global" : 0,
                  "skip_version_provider" : 0
               },
               "Dist::Zilla::Plugin::RewriteVersion::Transitional" : {}
            },
            "name" : "@Author::OALDERS/@Git::VersionManager/RewriteVersion::Transitional",
            "version" : "0.009"
         },
         {
            "class" : "Dist::Zilla::Plugin::MetaProvides::Update",
            "name" : "@Author::OALDERS/@Git::VersionManager/MetaProvides::Update",
            "version" : "0.007"
         },
         {
            "class" : "Dist::Zilla::Plugin::CopyFilesFromRelease",
            "config" : {
               "Dist::Zilla::Plugin::CopyFilesFromRelease" : {
                  "filename" : [
                     "Changes"
                  ],
                  "match" : []
               }
            },
            "name" : "@Author::OALDERS/@Git::VersionManager/CopyFilesFromRelease",
            "version" : "0.006"
         },
         {
            "class" : "Dist::Zilla::Plugin::Git::Commit",
            "config" : {
               "Dist::Zilla::Plugin::Git::Commit" : {
                  "add_files_in" : [],
                  "commit_msg" : "v%v%n%n%c"
               },
               "Dist::Zilla::Role::Git::DirtyFiles" : {
                  "allow_dirty" : [
                     "Changes",
                     "Install",
                     "LICENSE",
                     "META.json",
                     "Makefile.PL",
                     "README.md",
                     "cpanfile",
                     "dist.ini"
                  ],
                  "allow_dirty_match" : [],
                  "changelog" : "Changes"
               },
               "Dist::Zilla::Role::Git::Repo" : {
                  "git_version" : "2.20.1",
                  "repo_root" : "."
               },
               "Dist::Zilla::Role::Git::StringFormatter" : {
                  "time_zone" : "local"
               }
            },
            "name" : "@Author::OALDERS/@Git::VersionManager/release snapshot",
            "version" : "2.045"
         },
         {
            "class" : "Dist::Zilla::Plugin::Git::Tag",
            "config" : {
               "Dist::Zilla::Plugin::Git::Tag" : {
                  "branch" : null,
                  "changelog" : "Changes",
                  "signed" : 0,
                  "tag" : "v1.91",
                  "tag_format" : "v%v",
                  "tag_message" : "v%v"
               },
               "Dist::Zilla::Role::Git::Repo" : {
                  "git_version" : "2.20.1",
                  "repo_root" : "."
               },
               "Dist::Zilla::Role::Git::StringFormatter" : {
                  "time_zone" : "local"
               }
            },
            "name" : "@Author::OALDERS/@Git::VersionManager/Git::Tag",
            "version" : "2.045"
         },
         {
            "class" : "Dist::Zilla::Plugin::BumpVersionAfterRelease::Transitional",
            "config" : {
               "Dist::Zilla::Plugin::BumpVersionAfterRelease" : {
                  "finders" : [
                     ":ExecFiles",
                     ":InstallModules"
                  ],
                  "global" : 0,
                  "munge_makefile_pl" : 1
               },
               "Dist::Zilla::Plugin::BumpVersionAfterRelease::Transitional" : {}
            },
            "name" : "@Author::OALDERS/@Git::VersionManager/BumpVersionAfterRelease::Transitional",
            "version" : "0.009"
         },
         {
            "class" : "Dist::Zilla::Plugin::NextRelease",
            "name" : "@Author::OALDERS/@Git::VersionManager/NextRelease",
            "version" : "6.012"
         },
         {
            "class" : "Dist::Zilla::Plugin::Git::Commit",
            "config" : {
               "Dist::Zilla::Plugin::Git::Commit" : {
                  "add_files_in" : [],
                  "commit_msg" : "increment $VERSION after %v release"
               },
               "Dist::Zilla::Role::Git::DirtyFiles" : {
                  "allow_dirty" : [
                     "Build.PL",
                     "Changes",
                     "Makefile.PL"
                  ],
                  "allow_dirty_match" : [
                     "(?^:^lib/.*\\.pm$)"
                  ],
                  "changelog" : "Changes"
               },
               "Dist::Zilla::Role::Git::Repo" : {
                  "git_version" : "2.20.1",
                  "repo_root" : "."
               },
               "Dist::Zilla::Role::Git::StringFormatter" : {
                  "time_zone" : "local"
               }
            },
            "name" : "@Author::OALDERS/@Git::VersionManager/post-release commit",
            "version" : "2.045"
         },
         {
            "class" : "Dist::Zilla::Plugin::Git::Push",
            "config" : {
               "Dist::Zilla::Plugin::Git::Push" : {
                  "push_to" : [
                     "origin"
                  ],
                  "remotes_must_exist" : 1
               },
               "Dist::Zilla::Role::Git::Repo" : {
                  "git_version" : "2.20.1",
                  "repo_root" : "."
               }
            },
            "name" : "@Author::OALDERS/Git::Push",
            "version" : "2.045"
         },
         {
            "class" : "Dist::Zilla::Plugin::ExecDir",
            "name" : "ExecDir",
            "version" : "6.012"
         },
         {
            "class" : "Dist::Zilla::Plugin::RunExtraTests",
            "config" : {
               "Dist::Zilla::Role::TestRunner" : {
                  "default_jobs" : 1
               }
            },
            "name" : "RunExtraTests",
            "version" : "0.029"
         },
         {
            "class" : "Dist::Zilla::Plugin::Prereqs",
            "config" : {
               "Dist::Zilla::Plugin::Prereqs" : {
                  "phase" : "runtime",
                  "type" : "requires"
               }
            },
            "name" : "RuntimeRequires",
            "version" : "6.012"
         },
         {
            "class" : "Dist::Zilla::Plugin::Prereqs",
            "config" : {
               "Dist::Zilla::Plugin::Prereqs" : {
                  "phase" : "test",
                  "type" : "requires"
               }
            },
            "name" : "TestRequires",
            "version" : "6.012"
         },
         {
            "class" : "Dist::Zilla::Plugin::Prereqs",
            "config" : {
               "Dist::Zilla::Plugin::Prereqs" : {
                  "phase" : "develop",
                  "type" : "requires"
               }
            },
            "name" : "DevelopRequires",
            "version" : "6.012"
         },
         {
            "class" : "Dist::Zilla::Plugin::MetaProvides::Package",
            "config" : {
               "Dist::Zilla::Plugin::MetaProvides::Package" : {
                  "finder_objects" : [
                     {
                        "class" : "Dist::Zilla::Plugin::FinderCode",
                        "name" : "MetaProvides::Package/AUTOVIV/:InstallModulesPM",
                        "version" : "6.012"
                     }
                  ],
                  "include_underscores" : 0
               },
               "Dist::Zilla::Role::MetaProvider::Provider" : {
                  "$Dist::Zilla::Role::MetaProvider::Provider::VERSION" : "2.002004",
                  "inherit_missing" : 1,
                  "inherit_version" : 1,
                  "meta_noindex" : 1
               },
               "Dist::Zilla::Role::ModuleMetadata" : {
                  "Module::Metadata" : "1.000033",
                  "version" : "0.004"
               }
            },
            "name" : "MetaProvides::Package",
            "version" : "2.004003"
         },
         {
            "class" : "Dist::Zilla::Plugin::FinderCode",
            "name" : ":InstallModules",
            "version" : "6.012"
         },
         {
            "class" : "Dist::Zilla::Plugin::FinderCode",
            "name" : ":IncModules",
            "version" : "6.012"
         },
         {
            "class" : "Dist::Zilla::Plugin::FinderCode",
            "name" : ":TestFiles",
            "version" : "6.012"
         },
         {
            "class" : "Dist::Zilla::Plugin::FinderCode",
            "name" : ":ExtraTestFiles",
            "version" : "6.012"
         },
         {
            "class" : "Dist::Zilla::Plugin::FinderCode",
            "name" : ":ExecFiles",
            "version" : "6.012"
         },
         {
            "class" : "Dist::Zilla::Plugin::FinderCode",
            "name" : ":PerlExecFiles",
            "version" : "6.012"
         },
         {
            "class" : "Dist::Zilla::Plugin::FinderCode",
            "name" : ":ShareFiles",
            "version" : "6.012"
         },
         {
            "class" : "Dist::Zilla::Plugin::FinderCode",
            "name" : ":MainModule",
            "version" : "6.012"
         },
         {
            "class" : "Dist::Zilla::Plugin::FinderCode",
            "name" : ":AllFiles",
            "version" : "6.012"
         },
         {
            "class" : "Dist::Zilla::Plugin::FinderCode",
            "name" : ":NoFiles",
            "version" : "6.012"
         },
         {
            "class" : "Dist::Zilla::Plugin::FinderCode",
            "name" : "MetaProvides::Package/AUTOVIV/:InstallModulesPM",
            "version" : "6.012"
         }
      ],
      "zilla" : {
         "class" : "Dist::Zilla::Dist::Builder",
         "config" : {
            "is_trial" : 0
         },
         "version" : "6.012"
      }
   },
   "x_contributors" : [
      "Alexandr Ciornii <alexchorny@gmail.com>",
      "Andrew Grangaard <granny-github@ofb.net>",
      "Andy Lester <andy@petdance.com>",
      "Bernhard Wagner <gitcommit@bernhardwagner.net>",
      "Chase Whitener <capoeirab@cpan.org>",
      "dakkar <dakkar@thenautilus.net>",
      "Dave Doyle <dave.s.doyle@gmail.com>",
      "David Precious <davidp@preshweb.co.uk>",
      "David Steinbrunner <dsteinbrunner@pobox.com>",
      "Desmond Daignault <nawglan@gmail.com>",
      "Ed Avis <eda@waniasset.com>",
      "Evan Zacks <zackse@gmail.com>",
      "Flavio Poletti <flavio@polettix.it>",
      "Florian Schlichting <fsfs@debian.org>",
      "Gabor Szabo <szabgab@gmail.com>",
      "Gareth Tunley <gjtunley@gmail.com>",
      "gregor herrmann <gregoa@debian.org>",
      "Grigor Karavardanyan <k.grigor@yahoo.com>",
      "Jason May <jasonmay@bestpractical.com>",
      "Jesse Vincent <jesse@bestpractical.com>",
      "John Beppu <john.beppu@gmail.com>",
      "Karen Etheridge <ether@cpan.org>",
      "Kirrily 'Skud' Robert <skud@infotrope.net>",
      "Kivanc Yazan <kivancyazan@gmail.com>",
      "Lars D\u026a\u1d07\u1d04\u1d0b\u1d0f\u1d21 \u8fea\u62c9\u65af <daxim@cpan.org>",
      "Mark Stosberg <mark@summersault.com>",
      "Martin H. Sluka <martin@sluka.de>",
      "Matthew Chae <mschae@cpan.org>",
      "Matt S Trout <mst@shadowcat.co.uk>",
      "Max Maischein <corion@cpan.org>",
      "Mohammad S Anwar <mohammad.anwar@yahoo.com>",
      "Neil Bowers <neil@bowers.com>",
      "Nik LaBelle <nalabelle@gmail.com>",
      "Olaf Alders <olaf@wundersolutions.com>",
      "Philippe Bruhat (BooK) <book@cpan.org>",
      "Ricardo Signes <rjbs@cpan.org>",
      "Schuyler Langdon <schuyler@velargo.com>",
      "Sergey Romanov <sromanov-dev@yandex.ru>",
      "simbabque <simbabque@cpan.org>",
      "Steve Scaffidi <stephen@scaffidi.net>",
      "Stuart Johnston <saj_git@thecommune.net>",
      "sunnavy <sunnavy@bestpractical.com>",
      "Varadinsky <varadinsky@yahoo.com>",
      "Ville Skytt\u00e4 <ville.skytta@iki.fi>",
      "Zefram <zefram@fysh.org>"
   ],
   "x_generated_by_perl" : "v5.26.1",
   "x_serialization_backend" : "Cpanel::JSON::XS version 4.04"
}

